{
    "WelcomeMessage": {
      "replies": [
        {
          "speak": "[Introduzca aquí su mensaje introductorio]",
          "text": "[Introduzca aquí su mensaje introductorio]"
        }
      ],
      "suggestedActions": [],
      "inputHint": "acceptingInput"
    },
    "HelpMessage": {
      "replies": [
        {
          "speak": "[Introduzca su mensaje de ayuda aquí]",
          "text": "[Introduzca su mensaje de ayuda aquí]"
        }
      ],
      "suggestedActions": [],
      "inputHint": "acceptingInput"
    },
    "GreetingMessage": {
      "replies": [
        {
          "speak": "¡ Ahí está!",
          "text": "¡ Ahí está!"
        },
        {
          "speak": "¡Hola!",
          "text": "¡Hola!"
        },
        {
          "speak": "¡Hola!",
          "text": "¡Hola!"
        }
      ],
      "inputHint": "acceptingInput"
    },
    "GoodbyeMessage": {
      "replies": [
        {
          "speak": "¡Adiós!",
          "text": "¡Adiós!"
        }
      ],
      "inputHint": "acceptingInput"
    },
    "LogOut": {
      "replies": [
        {
          "speak": "Tu sesión fue exitosa.",
          "text": "Tu sesión fue exitosa."
        },
        {
          "speak": "Ha firmado con éxito.",
          "text": "Ha firmado con éxito."
        },
        {
          "speak": "Se ha desconectado.",
          "text": "Se ha desconectado."
        }
      ],
      "inputHint": "acceptingInput"
    },
    "FeatureNotAvailable": {
      "replies": [
        {
          "speak": "Esta función aún no está disponible en la habilidad. Por favor, intente preguntar algo más.",
          "text": "Esta función aún no está disponible en la habilidad. Por favor, intente preguntar algo más."
        }
      ],
      "inputHint": "acceptingInput"
    },
    "CancelMessage": {
      "replies": [
        {
          "speak": "Bien, empecemos de una vez.",
          "text": "Bien, empecemos de una vez."
        }
      ],
      "inputHint": "acceptingInput"
    }
}