{
    "DidntUnderstandMessage": {
      "replies": [
        {
          "speak": "Scusa, non ho capito cosa volevi dire.",
          "text": "Scusa, non ho capito cosa volevi dire."
        },
        {
          "speak": "Non ho capito, forse riprovare in modo diverso.",
          "text": "Non ho capito, forse riprovare in modo diverso."
        },
        {
          "speak": "Si può provare a chiedere in modo diverso?",
          "text": "Si può provare a chiedere in modo diverso?"
        },
        {
          "speak": "Non ho avuto quello che vuoi dire, si può provare in un modo diverso?",
          "text": "Non ho avuto quello che vuoi dire, si può provare in un modo diverso?"
        },
        {
          "speak": "Potresti elaborare?",
          "text": "Potresti elaborare?"
        },
        {
          "speak": "Si prega di dire che ancora una volta in modo diverso.",
          "text": "Si prega di dire che ancora una volta in modo diverso."
        },
        {
          "speak": "Non ho capito bene.",
          "text": "Non ho capito bene."
        },
        {
          "speak": "Si può dire che in un modo diverso?",
          "text": "Si può dire che in un modo diverso?"
        },
        {
          "speak": "Puoi provare a chiedermelo di nuovo? Non ho capito cosa intendi.",
          "text": "Puoi provare a chiedermelo di nuovo? Non ho capito cosa intendi."
        }
      ],
      "inputHint": "acceptingInput"
    },
    "CancellingMessage": {
      "replies": [
        {
          "speak": "Certo, possiamo farlo più tardi.",
          "text": "Certo, possiamo farlo più tardi."
        },
        {
          "speak": "Certo, possiamo iniziare dopo.",
          "text": "Certo, possiamo iniziare dopo."
        },
        {
          "speak": "Nessun problema, si può provare di nuovo in un altro momento.",
          "text": "Nessun problema, si può provare di nuovo in un altro momento."
        },
        {
          "speak": "Va bene, fammi sapere quando hai bisogno del mio aiuto.",
          "text": "Va bene, fammi sapere quando hai bisogno del mio aiuto."
        },
        {
          "speak": "Certo, sono qui se hai bisogno di me.",
          "text": "Certo, sono qui se hai bisogno di me."
        }
      ],
      "inputHint": "acceptingInput"
    },
    "NoAuth": {
      "replies": [
        {
          "speak": "Si prega di accedere prima di intraprendere ulteriori azioni.",
          "text": "Si prega di accedere prima di intraprendere ulteriori azioni."
        },
        {
          "speak": "Si prega di accedere in modo che io possa intraprendere ulteriori azioni.",
          "text": "Si prega di accedere in modo che io possa intraprendere ulteriori azioni."
        },
        {
          "speak": "Si prega di accedere in modo che io possa procedere con la vostra richiesta.",
          "text": "Si prega di accedere in modo che io possa procedere con la vostra richiesta."
        },
        {
          "speak": "Si può accedere in modo che io possa aiutarvi ulteriormente?",
          "text": "Si può accedere in modo che io possa aiutarvi ulteriormente?"
        },
        {
          "speak": "È necessario accedere in modo che io possa intraprendere ulteriori azioni.",
          "text": "È necessario accedere in modo che io possa intraprendere ulteriori azioni."
        }
      ],
      "inputHint": "expectingInput"
    },
    "AuthFailed": {
      "replies": [
        {
          "speak": "Autenticazione non riuscita. Per favore riprova.",
          "text": "Autenticazione non riuscita. Per favore riprova"
        },
        {
          "speak": "Non sei riuscito ad accedere. Per favore riprova più tardi.",
          "text": "Non sei riuscito ad accedere. Per favore riprova più tardi."
        },
        {
          "speak": "Il login non è riuscito. Proviamo di nuovo.",
          "text": "Il login non è riuscito. Proviamo di nuovo."
        }
      ],
      "inputHint": "acceptingInput"
    },
    "ActionEnded": {
      "replies": [
        {
          "speak": "Fatemi sapere se avete bisogno del mio aiuto con qualcos'altro.",
          "text": "Fatemi sapere se avete bisogno del mio aiuto con qualcos'altro."
        },
        {
          "speak": "Sono qui se hai bisogno di me.",
          "text": "Sono qui se hai bisogno di me."
        }
      ],
      "inputHint": "acceptingInput"
    },
    "ErrorMessage": {
      "replies": [
        {
          "speak": "Mi dispiace, sembra che qualcosa è andato storto!",
          "text": "Mi dispiace, sembra che qualcosa è andato storto!"
        },
        {
          "speak": "Si è verificato un errore, riprovare più tardi.",
          "text": "Si è verificato un errore, riprovare più tardi."
        },
        {
          "speak": "Qualcosa è andato storto, mi dispiace!",
          "text": "Qualcosa è andato storto, mi dispiace!"
        },
        {
          "speak": "Sembra che qualcosa è andato storto. Puoi riprovare più tardi?",
          "text": "Sembra che qualcosa è andato storto. Puoi riprovare più tardi?"
        },
        {
          "speak": "Mi dispiace non posso aiutare adesso. Per favore riprova più tardi.",
          "text": "Mi dispiace non posso aiutare adesso. Per favore riprova più tardi."
        }
      ],
      "inputHint": "acceptingInput"
    }
}